^C:\USERS\HARYA\DOCUMENTS\VISUAL STUDIO 2015\PROJECTS\ЗАДАЧА 6\ЗАДАЧА 6\DEBUG\SOURCE.OBJ
C:\USERS\HARYA\DOCUMENTS\VISUAL STUDIO 2015\PROJECTS\Задача 6\DEBUG\Задача 6.ILK
C:\USERS\HARYA\DOCUMENTS\VISUAL STUDIO 2015\PROJECTS\Задача 6\DEBUG\Задача 6.EXE
C:\USERS\HARYA\DOCUMENTS\VISUAL STUDIO 2015\PROJECTS\ЗАДАЧА 6\DEBUG\ЗАДАЧА 6.PDB
^C:\USERS\HARYA\DOCUMENTS\GITHUB\NEWREPO\ЗАДАЧА 6\ЗАДАЧА 6\DEBUG\SOURCE.OBJ
C:\USERS\HARYA\DOCUMENTS\GITHUB\NEWREPO\Задача 6\DEBUG\Задача 6.ILK
C:\USERS\HARYA\DOCUMENTS\GITHUB\NEWREPO\Задача 6\DEBUG\Задача 6.EXE
C:\USERS\HARYA\DOCUMENTS\GITHUB\NEWREPO\ЗАДАЧА 6\DEBUG\ЗАДАЧА 6.PDB
