^C:\USERS\HARYA\DOCUMENTS\VISUAL STUDIO 2015\PROJECTS\ПРОЕКТ1\ПРОЕКТ1\ГЫ1.CPP
C:\USERS\HARYA\DOCUMENTS\VISUAL STUDIO 2015\PROJECTS\Проект1\Проект1\DEBUG\VC140.PDB
C:\USERS\HARYA\DOCUMENTS\VISUAL STUDIO 2015\PROJECTS\Проект1\Проект1\DEBUG\VC140.IDB
C:\USERS\HARYA\DOCUMENTS\VISUAL STUDIO 2015\PROJECTS\Проект1\Проект1\DEBUG\гы1.OBJ
^C:\USERS\HARYA\DOCUMENTS\VISUAL STUDIO 2015\PROJECTS\ПРОЕКТ1\ПРОЕКТ1\ЗАДАЧА 3.CPP|C:\USERS\HARYA\DOCUMENTS\VISUAL STUDIO 2015\PROJECTS\ПРОЕКТ1\ПРОЕКТ1\ЗАДАЧА 4.CPP
C:\USERS\HARYA\DOCUMENTS\VISUAL STUDIO 2015\PROJECTS\Проект1\Проект1\DEBUG\VC140.PDB
C:\USERS\HARYA\DOCUMENTS\VISUAL STUDIO 2015\PROJECTS\Проект1\Проект1\DEBUG\VC140.IDB
C:\USERS\HARYA\DOCUMENTS\VISUAL STUDIO 2015\PROJECTS\Проект1\Проект1\DEBUG\Задача 3.OBJ
^C:\USERS\HARYA\DOCUMENTS\VISUAL STUDIO 2015\PROJECTS\ПРОЕКТ1\ПРОЕКТ1\ЗАДАЧА 3.CPP
C:\USERS\HARYA\DOCUMENTS\VISUAL STUDIO 2015\PROJECTS\ПРОЕКТ1\ПРОЕКТ1\DEBUG\VC140.PDB
C:\USERS\HARYA\DOCUMENTS\VISUAL STUDIO 2015\PROJECTS\Проект1\Проект1\DEBUG\VC140.IDB
C:\USERS\HARYA\DOCUMENTS\VISUAL STUDIO 2015\PROJECTS\Проект1\Проект1\DEBUG\Задача 3.OBJ
^C:\USERS\HARYA\DOCUMENTS\VISUAL STUDIO 2015\PROJECTS\ПРОЕКТ1\ПРОЕКТ1\ЗАДАЧА 4.CPP
C:\USERS\HARYA\DOCUMENTS\VISUAL STUDIO 2015\PROJECTS\ПРОЕКТ1\ПРОЕКТ1\DEBUG\VC140.PDB
C:\USERS\HARYA\DOCUMENTS\VISUAL STUDIO 2015\PROJECTS\Проект1\Проект1\DEBUG\VC140.IDB
C:\USERS\HARYA\DOCUMENTS\VISUAL STUDIO 2015\PROJECTS\Проект1\Проект1\DEBUG\Задача 4.OBJ
^C:\USERS\HARYA\DOCUMENTS\GITHUB\NEWREPO\ПРОЕКТ1\ПРОЕКТ1\ЗАДАЧА 3.CPP
C:\USERS\HARYA\DOCUMENTS\GITHUB\NEWREPO\Проект1\Проект1\DEBUG\VC140.PDB
C:\USERS\HARYA\DOCUMENTS\GITHUB\NEWREPO\Проект1\Проект1\DEBUG\VC140.IDB
C:\USERS\HARYA\DOCUMENTS\GITHUB\NEWREPO\Проект1\Проект1\DEBUG\Задача 3.OBJ
