^C:\USERS\HARYA\DOCUMENTS\VISUAL STUDIO 2015\PROJECTS\ПРОЕКТ2\ПРОЕКТ2\DEBUG\SOURCE.OBJ
C:\USERS\HARYA\DOCUMENTS\VISUAL STUDIO 2015\PROJECTS\Проект2\DEBUG\Проект2.ILK
C:\USERS\HARYA\DOCUMENTS\VISUAL STUDIO 2015\PROJECTS\Проект2\DEBUG\Проект2.EXE
C:\USERS\HARYA\DOCUMENTS\VISUAL STUDIO 2015\PROJECTS\ПРОЕКТ2\DEBUG\ПРОЕКТ2.PDB
